{
  "private": {
    "RESPARK_SECRET_KEY": "",
    "RESPARK_URL": "http://api.respark.insure",
    "RESPARK_PRODUCT_ID": "",
    "STRIPE_SECRET_KEY": "",
    "JWT_SIGNING_KEY": ""
  },
  "public": {
    "STRIPE_PUBLIC_KEY": "",
    "CLIENT_TYPE": "person",
    "APP_NAME": "ReSpark Client Demo App"
  }
}